﻿{
  "$schema": "http://json.schemastore.org/launchsettings.json",
  "iisSettings": {
    "windowsAuthentication": false, 
    "anonymousAuthentication": true, 
    "iisExpress": {
      "applicationUrl": "http://localhost:52925",
      "sslPort": 0
    }
  },
  "profiles": {
    "IIS Express": {
      "commandName": "IISExpress",
      "launchBrowser": true,
      //"launchUrl": "swagger/index.html",
      "environmentVariables": {
        "ASPNETCORE_ENVIRONMENT": "Development"
      }
    },
    "HortifrutiDias": {
      "commandName": "Project",
      "launchBrowser": true,
      //"launchUrl": "swagger/index.html",
      "applicationUrl": "http://localhost:5000",
      "environmentVariables": {
        "ASPNETCORE_ENVIRONMENT": "Development"
      }
    }
  }
}